Ecrire aux député.e.s concerné.e.s par le loup
…
On précise le chemin vers le fichier à télécharger.

path <- "https://www.voxpublic.org/IMG/csv/fichier_deputes_commissions.csv"

On télécharge le fichier depuis le site voxpublic.org.

download(url = path, destfile = "dat/deputes.csv", mode = "wb")

On lit le fichier.

deputes <- read_csv("dat/deputes.csv")
deputes

## # A tibble: 570 × 16
##    nom     sexe  num_deptmt nom_circo num_circo groupe_sigle commission_permane…
##    <chr>   <chr> <chr>      <chr>         <dbl> <chr>        <chr>              
##  1 Jean-M… H     86         Vienne            3 LT           Affaires étrangères
##  2 Bernar… H     13         Bouches-…        15 LR           Défense nationale …
##  3 Charle… H     51         Marne             5 LT           Finances de l’écon…
##  4 Jean-L… H     69         Rhône             3 LREM         Affaires sociales  
##  5 Marc L… H     22         Côtes-d'…         3 LR           Finances de l’écon…
##  6 Franço… H     44         Loire-At…         1 LREM         Défense nationale …
##  7 Jérôme… H     16         Charente          3 SOC          Affaires étrangères
##  8 Gérard… H     88         Vosges            2 LR           Affaires sociales  
##  9 Franço… H     52         Haute-Ma…         2 LR           Finances de l’écon…
## 10 Éric C… H     06         Alpes-Ma…         1 LR           Lois               
## # … with 560 more rows, and 9 more variables: fonction <chr>, sites_web <chr>,
## #   emails <chr>, twitter <chr>, autres_mandats <chr>, tel <chr>,
## #   adresse_permanence <chr>, cp_permanence <chr>, ville_permanence <chr>
…
Députés, départements et loups

Quels sont les députés dont les départements ont vu la présence du loup en 2019 (régulière ou occasionnelle) ?

deputes_loup <- deputes %>%
  filter(num_deptmt %in% num_dptment_loup)
deputes_loup

## # A tibble: 182 × 16
##    nom     sexe  num_deptmt nom_circo num_circo groupe_sigle commission_permane…
##    <chr>   <chr> <chr>      <chr>         <dbl> <chr>        <chr>              
##  1 Bernar… H     13         Bouches-…        15 LR           Défense nationale …
##  2 Charle… H     51         Marne             5 LT           Finances de l’écon…
##  3 Gérard… H     88         Vosges            2 LR           Affaires sociales  
##  4 Franço… H     52         Haute-Ma…         2 LR           Finances de l’écon…
##  5 Éric C… H     06         Alpes-Ma…         1 LR           Lois               
##  6 Jean-C… H     84         Vaucluse          2 LR           Affaires étrangères
##  7 Jean-L… H     68         Haut-Rhin         3 LR           Affaires étrangères
##  8 Michèl… F     06         Alpes-Ma…         9 LR           Affaires étrangères
##  9 Bertra… H     55         Meuse             1 LT           Affaires culturell…
## 10 Béreng… F     08         Ardennes          1 LR           Affaires étrangères
## # … with 172 more rows, and 9 more variables: fonction <chr>, sites_web <chr>,
## #   emails <chr>, twitter <chr>, autres_mandats <chr>, tel <chr>,
## #   adresse_permanence <chr>, cp_permanence <chr>, ville_permanence <chr>
…
